^D:\КГ\OPENGL_LABS\LAB_1\MAIN.CPP
/c /IC:\OPENGL\GLFW\INCLUDE\ /IC:\OPENGL\GLEW\INCLUDE /IC:\OPENGL\GLM /ZI /JMC /nologo /W3 /WX- /diagnostics:column /sdl /Od /Oy- /D WIN32 /D _DEBUG /D _CONSOLE /D _MBCS /Gm- /EHsc /RTC1 /MDd /GS /fp:precise /permissive- /Zc:wchar_t /Zc:forScope /Zc:inline /Fo"DEBUG\\" /Fd"DEBUG\VC142.PDB" /Gd /TP /analyze- /FC D:\КГ\OPENGL_LABS\LAB_1\MAIN.CPP
^C:\USER FILES\STUDY\REPO\STUDY\KG\OPENGL_LABS\LAB_1\MAIN.CPP
/c /IC:\OPENGL\GLFW\INCLUDE\ /IC:\OPENGL\GLEW\INCLUDE /IC:\OPENGL\GLM /ZI /JMC /nologo /W3 /WX- /diagnostics:column /sdl /Od /Oy- /D WIN32 /D _DEBUG /D _CONSOLE /D _MBCS /Gm- /EHsc /RTC1 /MDd /GS /fp:precise /permissive- /Zc:wchar_t /Zc:forScope /Zc:inline /Fo"DEBUG\\" /Fd"DEBUG\VC142.PDB" /Gd /TP /analyze- /FC C:\USER FILES\STUDY\REPO\STUDY\KG\OPENGL_LABS\LAB_1\MAIN.CPP
