^D:\КГ\OPENGL_LABS\LAB_5\DEBUG\MAIN.OBJ
D:\КГ\OPENGL_LABS\LAB_5\DEBUG\LAB_5.EXE
D:\КГ\OPENGL_LABS\LAB_5\DEBUG\LAB_5.ILK
D:\КГ\OPENGL_LABS\LAB_5\DEBUG\LAB_5.PDB
^C:\USER FILES\STUDY\REPO\STUDY\KG\OPENGL_LABS\LAB_5\DEBUG\MAIN.OBJ
C:\USER FILES\STUDY\REPO\STUDY\KG\OPENGL_LABS\LAB_5\DEBUG\LAB_5.ILK
C:\USER FILES\STUDY\REPO\STUDY\KG\OPENGL_LABS\LAB_5\DEBUG\LAB_5.EXE
C:\USER FILES\STUDY\REPO\STUDY\KG\OPENGL_LABS\LAB_5\DEBUG\LAB_5.PDB
