^D:\КГ\OPENGL_LABS\LAB_3\MAIN.CPP
C:\WINDOWS\GLOBALIZATION\SORTING\SORTDEFAULT.NLS
D:\PROGRAM FILES\VISUAL STUDIO\VC\TOOLS\MSVC\14.27.29110\BIN\HOSTX86\X86\1033\CLUI.DLL
C:\WINDOWS\SYSTEM32\TZRES.DLL
D:\PROGRAM FILES\VISUAL STUDIO\VC\TOOLS\MSVC\14.27.29110\INCLUDE\IOSTREAM
D:\PROGRAM FILES\VISUAL STUDIO\VC\TOOLS\MSVC\14.27.29110\INCLUDE\YVALS_CORE.H
D:\PROGRAM FILES\VISUAL STUDIO\VC\TOOLS\MSVC\14.27.29110\INCLUDE\VCRUNTIME.H
D:\PROGRAM FILES\VISUAL STUDIO\VC\TOOLS\MSVC\14.27.29110\INCLUDE\SAL.H
D:\PROGRAM FILES\VISUAL STUDIO\VC\TOOLS\MSVC\14.27.29110\INCLUDE\CONCURRENCYSAL.H
D:\PROGRAM FILES\VISUAL STUDIO\VC\TOOLS\MSVC\14.27.29110\INCLUDE\VADEFS.H
D:\PROGRAM FILES\VISUAL STUDIO\VC\TOOLS\MSVC\14.27.29110\INCLUDE\XKEYCHECK.H
D:\PROGRAM FILES\VISUAL STUDIO\VC\TOOLS\MSVC\14.27.29110\INCLUDE\ISTREAM
D:\PROGRAM FILES\VISUAL STUDIO\VC\TOOLS\MSVC\14.27.29110\INCLUDE\OSTREAM
D:\PROGRAM FILES\VISUAL STUDIO\VC\TOOLS\MSVC\14.27.29110\INCLUDE\IOS
D:\PROGRAM FILES\VISUAL STUDIO\VC\TOOLS\MSVC\14.27.29110\INCLUDE\XLOCNUM
D:\PROGRAM FILES\VISUAL STUDIO\VC\TOOLS\MSVC\14.27.29110\INCLUDE\CLIMITS
D:\PROGRAM FILES\VISUAL STUDIO\VC\TOOLS\MSVC\14.27.29110\INCLUDE\LIMITS.H
D:\PROGRAM FILES\VISUAL STUDIO\VC\TOOLS\MSVC\14.27.29110\INCLUDE\CMATH
D:\PROGRAM FILES\VISUAL STUDIO\VC\TOOLS\MSVC\14.27.29110\INCLUDE\YVALS.H
D:\WINDOWS KITS\10\INCLUDE\10.0.18362.0\UCRT\CRTDBG.H
D:\WINDOWS KITS\10\INCLUDE\10.0.18362.0\UCRT\CORECRT.H
D:\PROGRAM FILES\VISUAL STUDIO\VC\TOOLS\MSVC\14.27.29110\INCLUDE\VCRUNTIME_NEW_DEBUG.H
D:\PROGRAM FILES\VISUAL STUDIO\VC\TOOLS\MSVC\14.27.29110\INCLUDE\VCRUNTIME_NEW.H
D:\PROGRAM FILES\VISUAL STUDIO\VC\TOOLS\MSVC\14.27.29110\INCLUDE\CRTDEFS.H
D:\PROGRAM FILES\VISUAL STUDIO\VC\TOOLS\MSVC\14.27.29110\INCLUDE\USE_ANSI.H
D:\PROGRAM FILES\VISUAL STUDIO\VC\TOOLS\MSVC\14.27.29110\INCLUDE\CSTDLIB
D:\WINDOWS KITS\10\INCLUDE\10.0.18362.0\UCRT\MATH.H
D:\WINDOWS KITS\10\INCLUDE\10.0.18362.0\UCRT\CORECRT_MATH.H
D:\WINDOWS KITS\10\INCLUDE\10.0.18362.0\UCRT\STDLIB.H
D:\WINDOWS KITS\10\INCLUDE\10.0.18362.0\UCRT\CORECRT_MALLOC.H
D:\WINDOWS KITS\10\INCLUDE\10.0.18362.0\UCRT\CORECRT_SEARCH.H
D:\WINDOWS KITS\10\INCLUDE\10.0.18362.0\UCRT\STDDEF.H
D:\WINDOWS KITS\10\INCLUDE\10.0.18362.0\UCRT\CORECRT_WSTDLIB.H
D:\PROGRAM FILES\VISUAL STUDIO\VC\TOOLS\MSVC\14.27.29110\INCLUDE\XTR1COMMON
D:\PROGRAM FILES\VISUAL STUDIO\VC\TOOLS\MSVC\14.27.29110\INCLUDE\CSTDIO
D:\WINDOWS KITS\10\INCLUDE\10.0.18362.0\UCRT\STDIO.H
D:\WINDOWS KITS\10\INCLUDE\10.0.18362.0\UCRT\CORECRT_WSTDIO.H
D:\WINDOWS KITS\10\INCLUDE\10.0.18362.0\UCRT\CORECRT_STDIO_CONFIG.H
D:\PROGRAM FILES\VISUAL STUDIO\VC\TOOLS\MSVC\14.27.29110\INCLUDE\ITERATOR
D:\PROGRAM FILES\VISUAL STUDIO\VC\TOOLS\MSVC\14.27.29110\INCLUDE\IOSFWD
D:\PROGRAM FILES\VISUAL STUDIO\VC\TOOLS\MSVC\14.27.29110\INCLUDE\CSTRING
D:\WINDOWS KITS\10\INCLUDE\10.0.18362.0\UCRT\STRING.H
D:\WINDOWS KITS\10\INCLUDE\10.0.18362.0\UCRT\CORECRT_MEMORY.H
D:\WINDOWS KITS\10\INCLUDE\10.0.18362.0\UCRT\CORECRT_MEMCPY_S.H
D:\WINDOWS KITS\10\INCLUDE\10.0.18362.0\UCRT\ERRNO.H
D:\PROGRAM FILES\VISUAL STUDIO\VC\TOOLS\MSVC\14.27.29110\INCLUDE\VCRUNTIME_STRING.H
D:\WINDOWS KITS\10\INCLUDE\10.0.18362.0\UCRT\CORECRT_WSTRING.H
D:\PROGRAM FILES\VISUAL STUDIO\VC\TOOLS\MSVC\14.27.29110\INCLUDE\CWCHAR
D:\WINDOWS KITS\10\INCLUDE\10.0.18362.0\UCRT\WCHAR.H
D:\WINDOWS KITS\10\INCLUDE\10.0.18362.0\UCRT\CORECRT_WCONIO.H
D:\WINDOWS KITS\10\INCLUDE\10.0.18362.0\UCRT\CORECRT_WCTYPE.H
D:\WINDOWS KITS\10\INCLUDE\10.0.18362.0\UCRT\CORECRT_WDIRECT.H
D:\WINDOWS KITS\10\INCLUDE\10.0.18362.0\UCRT\CORECRT_WIO.H
D:\WINDOWS KITS\10\INCLUDE\10.0.18362.0\UCRT\CORECRT_SHARE.H
D:\WINDOWS KITS\10\INCLUDE\10.0.18362.0\UCRT\CORECRT_WPROCESS.H
D:\WINDOWS KITS\10\INCLUDE\10.0.18362.0\UCRT\CORECRT_WTIME.H
D:\WINDOWS KITS\10\INCLUDE\10.0.18362.0\UCRT\SYS\STAT.H
D:\WINDOWS KITS\10\INCLUDE\10.0.18362.0\UCRT\SYS\TYPES.H
D:\PROGRAM FILES\VISUAL STUDIO\VC\TOOLS\MSVC\14.27.29110\INCLUDE\XSTDDEF
D:\PROGRAM FILES\VISUAL STUDIO\VC\TOOLS\MSVC\14.27.29110\INCLUDE\CSTDDEF
D:\PROGRAM FILES\VISUAL STUDIO\VC\TOOLS\MSVC\14.27.29110\INCLUDE\INITIALIZER_LIST
D:\PROGRAM FILES\VISUAL STUDIO\VC\TOOLS\MSVC\14.27.29110\INCLUDE\XUTILITY
D:\PROGRAM FILES\VISUAL STUDIO\VC\TOOLS\MSVC\14.27.29110\INCLUDE\UTILITY
D:\PROGRAM FILES\VISUAL STUDIO\VC\TOOLS\MSVC\14.27.29110\INCLUDE\TYPE_TRAITS
D:\PROGRAM FILES\VISUAL STUDIO\VC\TOOLS\MSVC\14.27.29110\INCLUDE\STREAMBUF
D:\PROGRAM FILES\VISUAL STUDIO\VC\TOOLS\MSVC\14.27.29110\INCLUDE\XIOSBASE
D:\WINDOWS KITS\10\INCLUDE\10.0.18362.0\UCRT\SHARE.H
D:\PROGRAM FILES\VISUAL STUDIO\VC\TOOLS\MSVC\14.27.29110\INCLUDE\SYSTEM_ERROR
D:\PROGRAM FILES\VISUAL STUDIO\VC\TOOLS\MSVC\14.27.29110\INCLUDE\__MSVC_SYSTEM_ERROR_ABI.HPP
D:\PROGRAM FILES\VISUAL STUDIO\VC\TOOLS\MSVC\14.27.29110\INCLUDE\CERRNO
D:\PROGRAM FILES\VISUAL STUDIO\VC\TOOLS\MSVC\14.27.29110\INCLUDE\STDEXCEPT
D:\PROGRAM FILES\VISUAL STUDIO\VC\TOOLS\MSVC\14.27.29110\INCLUDE\EXCEPTION
D:\WINDOWS KITS\10\INCLUDE\10.0.18362.0\UCRT\MALLOC.H
D:\PROGRAM FILES\VISUAL STUDIO\VC\TOOLS\MSVC\14.27.29110\INCLUDE\VCRUNTIME_EXCEPTION.H
D:\PROGRAM FILES\VISUAL STUDIO\VC\TOOLS\MSVC\14.27.29110\INCLUDE\EH.H
D:\WINDOWS KITS\10\INCLUDE\10.0.18362.0\UCRT\CORECRT_TERMINATE.H
D:\PROGRAM FILES\VISUAL STUDIO\VC\TOOLS\MSVC\14.27.29110\INCLUDE\XSTRING
D:\PROGRAM FILES\VISUAL STUDIO\VC\TOOLS\MSVC\14.27.29110\INCLUDE\XMEMORY
D:\PROGRAM FILES\VISUAL STUDIO\VC\TOOLS\MSVC\14.27.29110\INCLUDE\CSTDINT
D:\PROGRAM FILES\VISUAL STUDIO\VC\TOOLS\MSVC\14.27.29110\INCLUDE\STDINT.H
D:\PROGRAM FILES\VISUAL STUDIO\VC\TOOLS\MSVC\14.27.29110\INCLUDE\LIMITS
D:\PROGRAM FILES\VISUAL STUDIO\VC\TOOLS\MSVC\14.27.29110\INCLUDE\CFLOAT
D:\WINDOWS KITS\10\INCLUDE\10.0.18362.0\UCRT\FLOAT.H
D:\PROGRAM FILES\VISUAL STUDIO\VC\TOOLS\MSVC\14.27.29110\INCLUDE\NEW
D:\PROGRAM FILES\VISUAL STUDIO\VC\TOOLS\MSVC\14.27.29110\INCLUDE\XATOMIC.H
D:\PROGRAM FILES\VISUAL STUDIO\VC\TOOLS\MSVC\14.27.29110\INCLUDE\INTRIN0.H
D:\PROGRAM FILES\VISUAL STUDIO\VC\TOOLS\MSVC\14.27.29110\INCLUDE\XCALL_ONCE.H
D:\PROGRAM FILES\VISUAL STUDIO\VC\TOOLS\MSVC\14.27.29110\INCLUDE\XERRC.H
D:\PROGRAM FILES\VISUAL STUDIO\VC\TOOLS\MSVC\14.27.29110\INCLUDE\ATOMIC
D:\PROGRAM FILES\VISUAL STUDIO\VC\TOOLS\MSVC\14.27.29110\INCLUDE\XLOCALE
D:\PROGRAM FILES\VISUAL STUDIO\VC\TOOLS\MSVC\14.27.29110\INCLUDE\MEMORY
D:\PROGRAM FILES\VISUAL STUDIO\VC\TOOLS\MSVC\14.27.29110\INCLUDE\TYPEINFO
D:\PROGRAM FILES\VISUAL STUDIO\VC\TOOLS\MSVC\14.27.29110\INCLUDE\VCRUNTIME_TYPEINFO.H
D:\PROGRAM FILES\VISUAL STUDIO\VC\TOOLS\MSVC\14.27.29110\INCLUDE\XFACET
D:\PROGRAM FILES\VISUAL STUDIO\VC\TOOLS\MSVC\14.27.29110\INCLUDE\XLOCINFO
D:\PROGRAM FILES\VISUAL STUDIO\VC\TOOLS\MSVC\14.27.29110\INCLUDE\XLOCINFO.H
D:\WINDOWS KITS\10\INCLUDE\10.0.18362.0\UCRT\CTYPE.H
D:\WINDOWS KITS\10\INCLUDE\10.0.18362.0\UCRT\LOCALE.H
D:\WINDOWS KITS\10\INCLUDE\10.0.18362.0\UM\WINDOWS.H
D:\WINDOWS KITS\10\INCLUDE\10.0.18362.0\SHARED\WINAPIFAMILY.H
D:\WINDOWS KITS\10\INCLUDE\10.0.18362.0\SHARED\WINPACKAGEFAMILY.H
D:\WINDOWS KITS\10\INCLUDE\10.0.18362.0\SHARED\SDKDDKVER.H
D:\PROGRAM FILES\VISUAL STUDIO\VC\TOOLS\MSVC\14.27.29110\INCLUDE\EXCPT.H
D:\PROGRAM FILES\VISUAL STUDIO\VC\TOOLS\MSVC\14.27.29110\INCLUDE\STDARG.H
D:\WINDOWS KITS\10\INCLUDE\10.0.18362.0\SHARED\WINDEF.H
D:\WINDOWS KITS\10\INCLUDE\10.0.18362.0\SHARED\MINWINDEF.H
D:\WINDOWS KITS\10\INCLUDE\10.0.18362.0\SHARED\SPECSTRINGS.H
D:\WINDOWS KITS\10\INCLUDE\10.0.18362.0\SHARED\SPECSTRINGS_STRICT.H
D:\WINDOWS KITS\10\INCLUDE\10.0.18362.0\SHARED\SPECSTRINGS_UNDEF.H
D:\WINDOWS KITS\10\INCLUDE\10.0.18362.0\SHARED\DRIVERSPECS.H
D:\WINDOWS KITS\10\INCLUDE\10.0.18362.0\SHARED\SDV_DRIVERSPECS.H
D:\WINDOWS KITS\10\INCLUDE\10.0.18362.0\UM\WINNT.H
D:\WINDOWS KITS\10\INCLUDE\10.0.18362.0\SHARED\KERNELSPECS.H
D:\WINDOWS KITS\10\INCLUDE\10.0.18362.0\SHARED\BASETSD.H
D:\WINDOWS KITS\10\INCLUDE\10.0.18362.0\SHARED\GUIDDEF.H
D:\WINDOWS KITS\10\INCLUDE\10.0.18362.0\SHARED\PSHPACK4.H
D:\WINDOWS KITS\10\INCLUDE\10.0.18362.0\SHARED\POPPACK.H
D:\WINDOWS KITS\10\INCLUDE\10.0.18362.0\SHARED\PSHPACK2.H
D:\WINDOWS KITS\10\INCLUDE\10.0.18362.0\SHARED\PSHPACK8.H
D:\WINDOWS KITS\10\INCLUDE\10.0.18362.0\SHARED\PSHPACK1.H
D:\WINDOWS KITS\10\INCLUDE\10.0.18362.0\SHARED\APISET.H
D:\WINDOWS KITS\10\INCLUDE\10.0.18362.0\SHARED\KTMTYPES.H
D:\WINDOWS KITS\10\INCLUDE\10.0.18362.0\UM\WINBASE.H
D:\WINDOWS KITS\10\INCLUDE\10.0.18362.0\SHARED\APISETCCONV.H
D:\WINDOWS KITS\10\INCLUDE\10.0.18362.0\UM\MINWINBASE.H
D:\WINDOWS KITS\10\INCLUDE\10.0.18362.0\UM\APIQUERY2.H
D:\WINDOWS KITS\10\INCLUDE\10.0.18362.0\UM\PROCESSENV.H
D:\WINDOWS KITS\10\INCLUDE\10.0.18362.0\UM\FILEAPIFROMAPP.H
D:\WINDOWS KITS\10\INCLUDE\10.0.18362.0\UM\FILEAPI.H
D:\WINDOWS KITS\10\INCLUDE\10.0.18362.0\UM\DEBUGAPI.H
D:\WINDOWS KITS\10\INCLUDE\10.0.18362.0\UM\UTILAPISET.H
D:\WINDOWS KITS\10\INCLUDE\10.0.18362.0\UM\HANDLEAPI.H
D:\WINDOWS KITS\10\INCLUDE\10.0.18362.0\UM\ERRHANDLINGAPI.H
D:\WINDOWS KITS\10\INCLUDE\10.0.18362.0\UM\FIBERSAPI.H
D:\WINDOWS KITS\10\INCLUDE\10.0.18362.0\UM\NAMEDPIPEAPI.H
D:\WINDOWS KITS\10\INCLUDE\10.0.18362.0\UM\PROFILEAPI.H
D:\WINDOWS KITS\10\INCLUDE\10.0.18362.0\UM\HEAPAPI.H
D:\WINDOWS KITS\10\INCLUDE\10.0.18362.0\UM\IOAPISET.H
D:\WINDOWS KITS\10\INCLUDE\10.0.18362.0\UM\SYNCHAPI.H
D:\WINDOWS KITS\10\INCLUDE\10.0.18362.0\UM\INTERLOCKEDAPI.H
D:\WINDOWS KITS\10\INCLUDE\10.0.18362.0\UM\PROCESSTHREADSAPI.H
D:\WINDOWS KITS\10\INCLUDE\10.0.18362.0\UM\SYSINFOAPI.H
D:\WINDOWS KITS\10\INCLUDE\10.0.18362.0\UM\MEMORYAPI.H
D:\WINDOWS KITS\10\INCLUDE\10.0.18362.0\UM\ENCLAVEAPI.H
D:\WINDOWS KITS\10\INCLUDE\10.0.18362.0\UM\THREADPOOLLEGACYAPISET.H
D:\WINDOWS KITS\10\INCLUDE\10.0.18362.0\UM\THREADPOOLAPISET.H
D:\WINDOWS KITS\10\INCLUDE\10.0.18362.0\UM\JOBAPI.H
D:\WINDOWS KITS\10\INCLUDE\10.0.18362.0\UM\JOBAPI2.H
D:\WINDOWS KITS\10\INCLUDE\10.0.18362.0\UM\WOW64APISET.H
D:\WINDOWS KITS\10\INCLUDE\10.0.18362.0\UM\LIBLOADERAPI.H
D:\WINDOWS KITS\10\INCLUDE\10.0.18362.0\UM\SECURITYBASEAPI.H
D:\WINDOWS KITS\10\INCLUDE\10.0.18362.0\UM\NAMESPACEAPI.H
D:\WINDOWS KITS\10\INCLUDE\10.0.18362.0\UM\SYSTEMTOPOLOGYAPI.H
D:\WINDOWS KITS\10\INCLUDE\10.0.18362.0\UM\PROCESSTOPOLOGYAPI.H
D:\WINDOWS KITS\10\INCLUDE\10.0.18362.0\UM\SECURITYAPPCONTAINER.H
D:\WINDOWS KITS\10\INCLUDE\10.0.18362.0\UM\REALTIMEAPISET.H
D:\WINDOWS KITS\10\INCLUDE\10.0.18362.0\SHARED\WINERROR.H
D:\WINDOWS KITS\10\INCLUDE\10.0.18362.0\UM\TIMEZONEAPI.H
D:\WINDOWS KITS\10\INCLUDE\10.0.18362.0\UM\WINGDI.H
D:\WINDOWS KITS\10\INCLUDE\10.0.18362.0\UM\WINUSER.H
D:\WINDOWS KITS\10\INCLUDE\10.0.18362.0\SHARED\TVOUT.H
D:\WINDOWS KITS\10\INCLUDE\10.0.18362.0\UM\WINNLS.H
D:\WINDOWS KITS\10\INCLUDE\10.0.18362.0\UM\DATETIMEAPI.H
D:\WINDOWS KITS\10\INCLUDE\10.0.18362.0\UM\STRINGAPISET.H
D:\WINDOWS KITS\10\INCLUDE\10.0.18362.0\UM\WINCON.H
D:\WINDOWS KITS\10\INCLUDE\10.0.18362.0\UM\WINCONTYPES.H
D:\WINDOWS KITS\10\INCLUDE\10.0.18362.0\UM\CONSOLEAPI.H
D:\WINDOWS KITS\10\INCLUDE\10.0.18362.0\UM\CONSOLEAPI2.H
D:\WINDOWS KITS\10\INCLUDE\10.0.18362.0\UM\CONSOLEAPI3.H
D:\WINDOWS KITS\10\INCLUDE\10.0.18362.0\UM\WINVER.H
D:\WINDOWS KITS\10\INCLUDE\10.0.18362.0\UM\VERRSRC.H
D:\WINDOWS KITS\10\INCLUDE\10.0.18362.0\UM\WINREG.H
D:\WINDOWS KITS\10\INCLUDE\10.0.18362.0\UM\REASON.H
D:\WINDOWS KITS\10\INCLUDE\10.0.18362.0\UM\WINNETWK.H
D:\WINDOWS KITS\10\INCLUDE\10.0.18362.0\SHARED\WNNC.H
D:\WINDOWS KITS\10\INCLUDE\10.0.18362.0\SHARED\CDERR.H
D:\WINDOWS KITS\10\INCLUDE\10.0.18362.0\UM\DDE.H
D:\WINDOWS KITS\10\INCLUDE\10.0.18362.0\UM\DDEML.H
D:\WINDOWS KITS\10\INCLUDE\10.0.18362.0\UM\DLGS.H
D:\WINDOWS KITS\10\INCLUDE\10.0.18362.0\UM\LZEXPAND.H
D:\WINDOWS KITS\10\INCLUDE\10.0.18362.0\UM\MMSYSTEM.H
D:\WINDOWS KITS\10\INCLUDE\10.0.18362.0\UM\MMSYSCOM.H
D:\WINDOWS KITS\10\INCLUDE\10.0.18362.0\UM\MCIAPI.H
D:\WINDOWS KITS\10\INCLUDE\10.0.18362.0\UM\MMISCAPI.H
D:\WINDOWS KITS\10\INCLUDE\10.0.18362.0\UM\MMISCAPI2.H
D:\WINDOWS KITS\10\INCLUDE\10.0.18362.0\UM\PLAYSOUNDAPI.H
D:\WINDOWS KITS\10\INCLUDE\10.0.18362.0\UM\MMEAPI.H
D:\WINDOWS KITS\10\INCLUDE\10.0.18362.0\UM\TIMEAPI.H
D:\WINDOWS KITS\10\INCLUDE\10.0.18362.0\UM\JOYSTICKAPI.H
D:\WINDOWS KITS\10\INCLUDE\10.0.18362.0\UM\NB30.H
D:\WINDOWS KITS\10\INCLUDE\10.0.18362.0\SHARED\RPC.H
D:\WINDOWS KITS\10\INCLUDE\10.0.18362.0\SHARED\RPCDCE.H
D:\WINDOWS KITS\10\INCLUDE\10.0.18362.0\SHARED\RPCDCEP.H
D:\WINDOWS KITS\10\INCLUDE\10.0.18362.0\UM\RPCNSI.H
D:\WINDOWS KITS\10\INCLUDE\10.0.18362.0\SHARED\RPCNTERR.H
D:\WINDOWS KITS\10\INCLUDE\10.0.18362.0\SHARED\RPCASYNC.H
D:\WINDOWS KITS\10\INCLUDE\10.0.18362.0\UM\SHELLAPI.H
D:\WINDOWS KITS\10\INCLUDE\10.0.18362.0\UM\WINPERF.H
D:\WINDOWS KITS\10\INCLUDE\10.0.18362.0\UM\WINSOCK.H
D:\WINDOWS KITS\10\INCLUDE\10.0.18362.0\SHARED\INADDR.H
D:\WINDOWS KITS\10\INCLUDE\10.0.18362.0\UM\WINCRYPT.H
D:\WINDOWS KITS\10\INCLUDE\10.0.18362.0\SHARED\BCRYPT.H
D:\WINDOWS KITS\10\INCLUDE\10.0.18362.0\UM\NCRYPT.H
D:\WINDOWS KITS\10\INCLUDE\10.0.18362.0\UM\DPAPI.H
D:\WINDOWS KITS\10\INCLUDE\10.0.18362.0\UM\WINEFS.H
D:\WINDOWS KITS\10\INCLUDE\10.0.18362.0\UM\WINSCARD.H
D:\WINDOWS KITS\10\INCLUDE\10.0.18362.0\SHARED\WTYPES.H
D:\WINDOWS KITS\10\INCLUDE\10.0.18362.0\SHARED\RPCNDR.H
D:\WINDOWS KITS\10\INCLUDE\10.0.18362.0\UM\RPCNSIP.H
D:\WINDOWS KITS\10\INCLUDE\10.0.18362.0\SHARED\RPCSAL.H
D:\WINDOWS KITS\10\INCLUDE\10.0.18362.0\SHARED\WTYPESBASE.H
D:\WINDOWS KITS\10\INCLUDE\10.0.18362.0\UM\WINIOCTL.H
D:\WINDOWS KITS\10\INCLUDE\10.0.18362.0\SHARED\WINSMCRD.H
D:\WINDOWS KITS\10\INCLUDE\10.0.18362.0\UM\WINSPOOL.H
D:\WINDOWS KITS\10\INCLUDE\10.0.18362.0\UM\PRSHT.H
D:\WINDOWS KITS\10\INCLUDE\10.0.18362.0\UM\OLE2.H
D:\WINDOWS KITS\10\INCLUDE\10.0.18362.0\UM\OBJBASE.H
D:\WINDOWS KITS\10\INCLUDE\10.0.18362.0\UM\COMBASEAPI.H
D:\WINDOWS KITS\10\INCLUDE\10.0.18362.0\UM\UNKNWNBASE.H
D:\WINDOWS KITS\10\INCLUDE\10.0.18362.0\UM\OBJIDLBASE.H
D:\WINDOWS KITS\10\INCLUDE\10.0.18362.0\UM\CGUID.H
D:\WINDOWS KITS\10\INCLUDE\10.0.18362.0\UM\COML2API.H
D:\WINDOWS KITS\10\INCLUDE\10.0.18362.0\UM\OBJIDL.H
D:\WINDOWS KITS\10\INCLUDE\10.0.18362.0\UM\UNKNWN.H
D:\WINDOWS KITS\10\INCLUDE\10.0.18362.0\UM\PROPIDLBASE.H
D:\WINDOWS KITS\10\INCLUDE\10.0.18362.0\UM\OAIDL.H
D:\WINDOWS KITS\10\INCLUDE\10.0.18362.0\UM\URLMON.H
D:\WINDOWS KITS\10\INCLUDE\10.0.18362.0\UM\OLEIDL.H
D:\WINDOWS KITS\10\INCLUDE\10.0.18362.0\UM\SERVPROV.H
D:\WINDOWS KITS\10\INCLUDE\10.0.18362.0\UM\MSXML.H
D:\WINDOWS KITS\10\INCLUDE\10.0.18362.0\UM\PROPIDL.H
D:\WINDOWS KITS\10\INCLUDE\10.0.18362.0\UM\OLEAUTO.H
D:\WINDOWS KITS\10\INCLUDE\10.0.18362.0\UM\COMMDLG.H
D:\WINDOWS KITS\10\INCLUDE\10.0.18362.0\SHARED\STRALIGN.H
D:\WINDOWS KITS\10\INCLUDE\10.0.18362.0\UM\WINSVC.H
D:\WINDOWS KITS\10\INCLUDE\10.0.18362.0\UM\MCX.H
D:\WINDOWS KITS\10\INCLUDE\10.0.18362.0\UM\IMM.H
D:\WINDOWS KITS\10\INCLUDE\10.0.18362.0\UM\IME_CMODES.H
D:\WINDOWS KITS\10\INCLUDE\10.0.18362.0\UM\GL\GL.H
D:\WINDOWS KITS\10\INCLUDE\10.0.18362.0\UM\GL\GLU.H
^C:\USER FILES\STUDY\REPO\STUDY\KG\OPENGL_LABS\LAB_3\MAIN.CPP
C:\WINDOWS\GLOBALIZATION\SORTING\SORTDEFAULT.NLS
C:\WINDOWS\SYSTEM32\RSAENH.DLL
C:\PROGRAM FILES (X86)\MICROSOFT VISUAL STUDIO\2019\COMMUNITY\VC\TOOLS\MSVC\14.28.29333\BIN\HOSTX86\X86\1049\CLUI.DLL
C:\WINDOWS\SYSTEM32\TZRES.DLL
C:\PROGRAM FILES (X86)\MICROSOFT VISUAL STUDIO\2019\COMMUNITY\VC\TOOLS\MSVC\14.28.29333\INCLUDE\IOSTREAM
C:\PROGRAM FILES (X86)\MICROSOFT VISUAL STUDIO\2019\COMMUNITY\VC\TOOLS\MSVC\14.28.29333\INCLUDE\YVALS_CORE.H
C:\PROGRAM FILES (X86)\MICROSOFT VISUAL STUDIO\2019\COMMUNITY\VC\TOOLS\MSVC\14.28.29333\INCLUDE\VCRUNTIME.H
C:\PROGRAM FILES (X86)\MICROSOFT VISUAL STUDIO\2019\COMMUNITY\VC\TOOLS\MSVC\14.28.29333\INCLUDE\SAL.H
C:\PROGRAM FILES (X86)\MICROSOFT VISUAL STUDIO\2019\COMMUNITY\VC\TOOLS\MSVC\14.28.29333\INCLUDE\CONCURRENCYSAL.H
C:\PROGRAM FILES (X86)\MICROSOFT VISUAL STUDIO\2019\COMMUNITY\VC\TOOLS\MSVC\14.28.29333\INCLUDE\VADEFS.H
C:\PROGRAM FILES (X86)\MICROSOFT VISUAL STUDIO\2019\COMMUNITY\VC\TOOLS\MSVC\14.28.29333\INCLUDE\XKEYCHECK.H
C:\PROGRAM FILES (X86)\MICROSOFT VISUAL STUDIO\2019\COMMUNITY\VC\TOOLS\MSVC\14.28.29333\INCLUDE\ISTREAM
C:\PROGRAM FILES (X86)\MICROSOFT VISUAL STUDIO\2019\COMMUNITY\VC\TOOLS\MSVC\14.28.29333\INCLUDE\OSTREAM
C:\PROGRAM FILES (X86)\MICROSOFT VISUAL STUDIO\2019\COMMUNITY\VC\TOOLS\MSVC\14.28.29333\INCLUDE\IOS
C:\PROGRAM FILES (X86)\MICROSOFT VISUAL STUDIO\2019\COMMUNITY\VC\TOOLS\MSVC\14.28.29333\INCLUDE\XLOCNUM
C:\PROGRAM FILES (X86)\MICROSOFT VISUAL STUDIO\2019\COMMUNITY\VC\TOOLS\MSVC\14.28.29333\INCLUDE\CLIMITS
C:\PROGRAM FILES (X86)\MICROSOFT VISUAL STUDIO\2019\COMMUNITY\VC\TOOLS\MSVC\14.28.29333\INCLUDE\LIMITS.H
C:\PROGRAM FILES (X86)\MICROSOFT VISUAL STUDIO\2019\COMMUNITY\VC\TOOLS\MSVC\14.28.29333\INCLUDE\CMATH
C:\PROGRAM FILES (X86)\MICROSOFT VISUAL STUDIO\2019\COMMUNITY\VC\TOOLS\MSVC\14.28.29333\INCLUDE\YVALS.H
C:\PROGRAM FILES (X86)\WINDOWS KITS\10\INCLUDE\10.0.18362.0\UCRT\CRTDBG.H
C:\PROGRAM FILES (X86)\WINDOWS KITS\10\INCLUDE\10.0.18362.0\UCRT\CORECRT.H
C:\PROGRAM FILES (X86)\MICROSOFT VISUAL STUDIO\2019\COMMUNITY\VC\TOOLS\MSVC\14.28.29333\INCLUDE\VCRUNTIME_NEW_DEBUG.H
C:\PROGRAM FILES (X86)\MICROSOFT VISUAL STUDIO\2019\COMMUNITY\VC\TOOLS\MSVC\14.28.29333\INCLUDE\VCRUNTIME_NEW.H
C:\PROGRAM FILES (X86)\MICROSOFT VISUAL STUDIO\2019\COMMUNITY\VC\TOOLS\MSVC\14.28.29333\INCLUDE\CRTDEFS.H
C:\PROGRAM FILES (X86)\MICROSOFT VISUAL STUDIO\2019\COMMUNITY\VC\TOOLS\MSVC\14.28.29333\INCLUDE\USE_ANSI.H
C:\PROGRAM FILES (X86)\MICROSOFT VISUAL STUDIO\2019\COMMUNITY\VC\TOOLS\MSVC\14.28.29333\INCLUDE\CSTDLIB
C:\PROGRAM FILES (X86)\WINDOWS KITS\10\INCLUDE\10.0.18362.0\UCRT\MATH.H
C:\PROGRAM FILES (X86)\WINDOWS KITS\10\INCLUDE\10.0.18362.0\UCRT\CORECRT_MATH.H
C:\PROGRAM FILES (X86)\WINDOWS KITS\10\INCLUDE\10.0.18362.0\UCRT\STDLIB.H
C:\PROGRAM FILES (X86)\WINDOWS KITS\10\INCLUDE\10.0.18362.0\UCRT\CORECRT_MALLOC.H
C:\PROGRAM FILES (X86)\WINDOWS KITS\10\INCLUDE\10.0.18362.0\UCRT\CORECRT_SEARCH.H
C:\PROGRAM FILES (X86)\WINDOWS KITS\10\INCLUDE\10.0.18362.0\UCRT\STDDEF.H
C:\PROGRAM FILES (X86)\WINDOWS KITS\10\INCLUDE\10.0.18362.0\UCRT\CORECRT_WSTDLIB.H
C:\PROGRAM FILES (X86)\MICROSOFT VISUAL STUDIO\2019\COMMUNITY\VC\TOOLS\MSVC\14.28.29333\INCLUDE\XTR1COMMON
C:\PROGRAM FILES (X86)\MICROSOFT VISUAL STUDIO\2019\COMMUNITY\VC\TOOLS\MSVC\14.28.29333\INCLUDE\CSTDIO
C:\PROGRAM FILES (X86)\WINDOWS KITS\10\INCLUDE\10.0.18362.0\UCRT\STDIO.H
C:\PROGRAM FILES (X86)\WINDOWS KITS\10\INCLUDE\10.0.18362.0\UCRT\CORECRT_WSTDIO.H
C:\PROGRAM FILES (X86)\WINDOWS KITS\10\INCLUDE\10.0.18362.0\UCRT\CORECRT_STDIO_CONFIG.H
C:\PROGRAM FILES (X86)\MICROSOFT VISUAL STUDIO\2019\COMMUNITY\VC\TOOLS\MSVC\14.28.29333\INCLUDE\ITERATOR
C:\PROGRAM FILES (X86)\MICROSOFT VISUAL STUDIO\2019\COMMUNITY\VC\TOOLS\MSVC\14.28.29333\INCLUDE\IOSFWD
C:\PROGRAM FILES (X86)\MICROSOFT VISUAL STUDIO\2019\COMMUNITY\VC\TOOLS\MSVC\14.28.29333\INCLUDE\CSTRING
C:\PROGRAM FILES (X86)\WINDOWS KITS\10\INCLUDE\10.0.18362.0\UCRT\STRING.H
C:\PROGRAM FILES (X86)\WINDOWS KITS\10\INCLUDE\10.0.18362.0\UCRT\CORECRT_MEMORY.H
C:\PROGRAM FILES (X86)\WINDOWS KITS\10\INCLUDE\10.0.18362.0\UCRT\CORECRT_MEMCPY_S.H
C:\PROGRAM FILES (X86)\WINDOWS KITS\10\INCLUDE\10.0.18362.0\UCRT\ERRNO.H
C:\PROGRAM FILES (X86)\MICROSOFT VISUAL STUDIO\2019\COMMUNITY\VC\TOOLS\MSVC\14.28.29333\INCLUDE\VCRUNTIME_STRING.H
C:\PROGRAM FILES (X86)\WINDOWS KITS\10\INCLUDE\10.0.18362.0\UCRT\CORECRT_WSTRING.H
C:\PROGRAM FILES (X86)\MICROSOFT VISUAL STUDIO\2019\COMMUNITY\VC\TOOLS\MSVC\14.28.29333\INCLUDE\CWCHAR
C:\PROGRAM FILES (X86)\WINDOWS KITS\10\INCLUDE\10.0.18362.0\UCRT\WCHAR.H
C:\PROGRAM FILES (X86)\WINDOWS KITS\10\INCLUDE\10.0.18362.0\UCRT\CORECRT_WCONIO.H
C:\PROGRAM FILES (X86)\WINDOWS KITS\10\INCLUDE\10.0.18362.0\UCRT\CORECRT_WCTYPE.H
C:\PROGRAM FILES (X86)\WINDOWS KITS\10\INCLUDE\10.0.18362.0\UCRT\CORECRT_WDIRECT.H
C:\PROGRAM FILES (X86)\WINDOWS KITS\10\INCLUDE\10.0.18362.0\UCRT\CORECRT_WIO.H
C:\PROGRAM FILES (X86)\WINDOWS KITS\10\INCLUDE\10.0.18362.0\UCRT\CORECRT_SHARE.H
C:\PROGRAM FILES (X86)\WINDOWS KITS\10\INCLUDE\10.0.18362.0\UCRT\CORECRT_WPROCESS.H
C:\PROGRAM FILES (X86)\WINDOWS KITS\10\INCLUDE\10.0.18362.0\UCRT\CORECRT_WTIME.H
C:\PROGRAM FILES (X86)\WINDOWS KITS\10\INCLUDE\10.0.18362.0\UCRT\SYS\STAT.H
C:\PROGRAM FILES (X86)\WINDOWS KITS\10\INCLUDE\10.0.18362.0\UCRT\SYS\TYPES.H
C:\PROGRAM FILES (X86)\MICROSOFT VISUAL STUDIO\2019\COMMUNITY\VC\TOOLS\MSVC\14.28.29333\INCLUDE\XSTDDEF
C:\PROGRAM FILES (X86)\MICROSOFT VISUAL STUDIO\2019\COMMUNITY\VC\TOOLS\MSVC\14.28.29333\INCLUDE\CSTDDEF
C:\PROGRAM FILES (X86)\MICROSOFT VISUAL STUDIO\2019\COMMUNITY\VC\TOOLS\MSVC\14.28.29333\INCLUDE\INITIALIZER_LIST
C:\PROGRAM FILES (X86)\MICROSOFT VISUAL STUDIO\2019\COMMUNITY\VC\TOOLS\MSVC\14.28.29333\INCLUDE\XUTILITY
C:\PROGRAM FILES (X86)\MICROSOFT VISUAL STUDIO\2019\COMMUNITY\VC\TOOLS\MSVC\14.28.29333\INCLUDE\UTILITY
C:\PROGRAM FILES (X86)\MICROSOFT VISUAL STUDIO\2019\COMMUNITY\VC\TOOLS\MSVC\14.28.29333\INCLUDE\TYPE_TRAITS
C:\PROGRAM FILES (X86)\MICROSOFT VISUAL STUDIO\2019\COMMUNITY\VC\TOOLS\MSVC\14.28.29333\INCLUDE\STREAMBUF
C:\PROGRAM FILES (X86)\MICROSOFT VISUAL STUDIO\2019\COMMUNITY\VC\TOOLS\MSVC\14.28.29333\INCLUDE\XIOSBASE
C:\PROGRAM FILES (X86)\WINDOWS KITS\10\INCLUDE\10.0.18362.0\UCRT\SHARE.H
C:\PROGRAM FILES (X86)\MICROSOFT VISUAL STUDIO\2019\COMMUNITY\VC\TOOLS\MSVC\14.28.29333\INCLUDE\SYSTEM_ERROR
C:\PROGRAM FILES (X86)\MICROSOFT VISUAL STUDIO\2019\COMMUNITY\VC\TOOLS\MSVC\14.28.29333\INCLUDE\__MSVC_SYSTEM_ERROR_ABI.HPP
C:\PROGRAM FILES (X86)\MICROSOFT VISUAL STUDIO\2019\COMMUNITY\VC\TOOLS\MSVC\14.28.29333\INCLUDE\CERRNO
C:\PROGRAM FILES (X86)\MICROSOFT VISUAL STUDIO\2019\COMMUNITY\VC\TOOLS\MSVC\14.28.29333\INCLUDE\STDEXCEPT
C:\PROGRAM FILES (X86)\MICROSOFT VISUAL STUDIO\2019\COMMUNITY\VC\TOOLS\MSVC\14.28.29333\INCLUDE\EXCEPTION
C:\PROGRAM FILES (X86)\WINDOWS KITS\10\INCLUDE\10.0.18362.0\UCRT\MALLOC.H
C:\PROGRAM FILES (X86)\MICROSOFT VISUAL STUDIO\2019\COMMUNITY\VC\TOOLS\MSVC\14.28.29333\INCLUDE\VCRUNTIME_EXCEPTION.H
C:\PROGRAM FILES (X86)\MICROSOFT VISUAL STUDIO\2019\COMMUNITY\VC\TOOLS\MSVC\14.28.29333\INCLUDE\EH.H
C:\PROGRAM FILES (X86)\WINDOWS KITS\10\INCLUDE\10.0.18362.0\UCRT\CORECRT_TERMINATE.H
C:\PROGRAM FILES (X86)\MICROSOFT VISUAL STUDIO\2019\COMMUNITY\VC\TOOLS\MSVC\14.28.29333\INCLUDE\XSTRING
C:\PROGRAM FILES (X86)\MICROSOFT VISUAL STUDIO\2019\COMMUNITY\VC\TOOLS\MSVC\14.28.29333\INCLUDE\XMEMORY
C:\PROGRAM FILES (X86)\MICROSOFT VISUAL STUDIO\2019\COMMUNITY\VC\TOOLS\MSVC\14.28.29333\INCLUDE\CSTDINT
C:\PROGRAM FILES (X86)\MICROSOFT VISUAL STUDIO\2019\COMMUNITY\VC\TOOLS\MSVC\14.28.29333\INCLUDE\STDINT.H
C:\PROGRAM FILES (X86)\MICROSOFT VISUAL STUDIO\2019\COMMUNITY\VC\TOOLS\MSVC\14.28.29333\INCLUDE\LIMITS
C:\PROGRAM FILES (X86)\MICROSOFT VISUAL STUDIO\2019\COMMUNITY\VC\TOOLS\MSVC\14.28.29333\INCLUDE\CFLOAT
C:\PROGRAM FILES (X86)\WINDOWS KITS\10\INCLUDE\10.0.18362.0\UCRT\FLOAT.H
C:\PROGRAM FILES (X86)\MICROSOFT VISUAL STUDIO\2019\COMMUNITY\VC\TOOLS\MSVC\14.28.29333\INCLUDE\INTRIN0.H
C:\PROGRAM FILES (X86)\MICROSOFT VISUAL STUDIO\2019\COMMUNITY\VC\TOOLS\MSVC\14.28.29333\INCLUDE\ISA_AVAILABILITY.H
C:\PROGRAM FILES (X86)\MICROSOFT VISUAL STUDIO\2019\COMMUNITY\VC\TOOLS\MSVC\14.28.29333\INCLUDE\NEW
C:\PROGRAM FILES (X86)\MICROSOFT VISUAL STUDIO\2019\COMMUNITY\VC\TOOLS\MSVC\14.28.29333\INCLUDE\XATOMIC.H
C:\PROGRAM FILES (X86)\MICROSOFT VISUAL STUDIO\2019\COMMUNITY\VC\TOOLS\MSVC\14.28.29333\INCLUDE\XCALL_ONCE.H
C:\PROGRAM FILES (X86)\MICROSOFT VISUAL STUDIO\2019\COMMUNITY\VC\TOOLS\MSVC\14.28.29333\INCLUDE\XERRC.H
C:\PROGRAM FILES (X86)\MICROSOFT VISUAL STUDIO\2019\COMMUNITY\VC\TOOLS\MSVC\14.28.29333\INCLUDE\ATOMIC
C:\PROGRAM FILES (X86)\MICROSOFT VISUAL STUDIO\2019\COMMUNITY\VC\TOOLS\MSVC\14.28.29333\INCLUDE\XTHREADS.H
C:\PROGRAM FILES (X86)\MICROSOFT VISUAL STUDIO\2019\COMMUNITY\VC\TOOLS\MSVC\14.28.29333\INCLUDE\XTIMEC.H
C:\PROGRAM FILES (X86)\WINDOWS KITS\10\INCLUDE\10.0.18362.0\UCRT\TIME.H
C:\PROGRAM FILES (X86)\MICROSOFT VISUAL STUDIO\2019\COMMUNITY\VC\TOOLS\MSVC\14.28.29333\INCLUDE\XLOCALE
C:\PROGRAM FILES (X86)\MICROSOFT VISUAL STUDIO\2019\COMMUNITY\VC\TOOLS\MSVC\14.28.29333\INCLUDE\MEMORY
C:\PROGRAM FILES (X86)\MICROSOFT VISUAL STUDIO\2019\COMMUNITY\VC\TOOLS\MSVC\14.28.29333\INCLUDE\TYPEINFO
C:\PROGRAM FILES (X86)\MICROSOFT VISUAL STUDIO\2019\COMMUNITY\VC\TOOLS\MSVC\14.28.29333\INCLUDE\VCRUNTIME_TYPEINFO.H
C:\PROGRAM FILES (X86)\MICROSOFT VISUAL STUDIO\2019\COMMUNITY\VC\TOOLS\MSVC\14.28.29333\INCLUDE\XFACET
C:\PROGRAM FILES (X86)\MICROSOFT VISUAL STUDIO\2019\COMMUNITY\VC\TOOLS\MSVC\14.28.29333\INCLUDE\XLOCINFO
C:\PROGRAM FILES (X86)\MICROSOFT VISUAL STUDIO\2019\COMMUNITY\VC\TOOLS\MSVC\14.28.29333\INCLUDE\XLOCINFO.H
C:\PROGRAM FILES (X86)\WINDOWS KITS\10\INCLUDE\10.0.18362.0\UCRT\CTYPE.H
C:\PROGRAM FILES (X86)\WINDOWS KITS\10\INCLUDE\10.0.18362.0\UCRT\LOCALE.H
C:\PROGRAM FILES (X86)\WINDOWS KITS\10\INCLUDE\10.0.18362.0\UM\WINDOWS.H
C:\PROGRAM FILES (X86)\WINDOWS KITS\10\INCLUDE\10.0.18362.0\SHARED\WINAPIFAMILY.H
C:\PROGRAM FILES (X86)\WINDOWS KITS\10\INCLUDE\10.0.18362.0\SHARED\WINPACKAGEFAMILY.H
C:\PROGRAM FILES (X86)\WINDOWS KITS\10\INCLUDE\10.0.18362.0\SHARED\SDKDDKVER.H
C:\PROGRAM FILES (X86)\MICROSOFT VISUAL STUDIO\2019\COMMUNITY\VC\TOOLS\MSVC\14.28.29333\INCLUDE\EXCPT.H
C:\PROGRAM FILES (X86)\MICROSOFT VISUAL STUDIO\2019\COMMUNITY\VC\TOOLS\MSVC\14.28.29333\INCLUDE\STDARG.H
C:\PROGRAM FILES (X86)\WINDOWS KITS\10\INCLUDE\10.0.18362.0\SHARED\WINDEF.H
C:\PROGRAM FILES (X86)\WINDOWS KITS\10\INCLUDE\10.0.18362.0\SHARED\MINWINDEF.H
C:\PROGRAM FILES (X86)\WINDOWS KITS\10\INCLUDE\10.0.18362.0\SHARED\SPECSTRINGS.H
C:\PROGRAM FILES (X86)\WINDOWS KITS\10\INCLUDE\10.0.18362.0\SHARED\SPECSTRINGS_STRICT.H
C:\PROGRAM FILES (X86)\WINDOWS KITS\10\INCLUDE\10.0.18362.0\SHARED\SPECSTRINGS_UNDEF.H
C:\PROGRAM FILES (X86)\WINDOWS KITS\10\INCLUDE\10.0.18362.0\SHARED\DRIVERSPECS.H
C:\PROGRAM FILES (X86)\WINDOWS KITS\10\INCLUDE\10.0.18362.0\SHARED\SDV_DRIVERSPECS.H
C:\PROGRAM FILES (X86)\WINDOWS KITS\10\INCLUDE\10.0.18362.0\UM\WINNT.H
C:\PROGRAM FILES (X86)\WINDOWS KITS\10\INCLUDE\10.0.18362.0\SHARED\KERNELSPECS.H
C:\PROGRAM FILES (X86)\WINDOWS KITS\10\INCLUDE\10.0.18362.0\SHARED\BASETSD.H
C:\PROGRAM FILES (X86)\WINDOWS KITS\10\INCLUDE\10.0.18362.0\SHARED\GUIDDEF.H
C:\PROGRAM FILES (X86)\WINDOWS KITS\10\INCLUDE\10.0.18362.0\SHARED\PSHPACK4.H
C:\PROGRAM FILES (X86)\WINDOWS KITS\10\INCLUDE\10.0.18362.0\SHARED\POPPACK.H
C:\PROGRAM FILES (X86)\WINDOWS KITS\10\INCLUDE\10.0.18362.0\SHARED\PSHPACK2.H
C:\PROGRAM FILES (X86)\WINDOWS KITS\10\INCLUDE\10.0.18362.0\SHARED\PSHPACK8.H
C:\PROGRAM FILES (X86)\WINDOWS KITS\10\INCLUDE\10.0.18362.0\SHARED\PSHPACK1.H
C:\PROGRAM FILES (X86)\WINDOWS KITS\10\INCLUDE\10.0.18362.0\SHARED\APISET.H
C:\PROGRAM FILES (X86)\WINDOWS KITS\10\INCLUDE\10.0.18362.0\SHARED\KTMTYPES.H
C:\PROGRAM FILES (X86)\WINDOWS KITS\10\INCLUDE\10.0.18362.0\UM\WINBASE.H
C:\PROGRAM FILES (X86)\WINDOWS KITS\10\INCLUDE\10.0.18362.0\SHARED\APISETCCONV.H
C:\PROGRAM FILES (X86)\WINDOWS KITS\10\INCLUDE\10.0.18362.0\UM\MINWINBASE.H
C:\PROGRAM FILES (X86)\WINDOWS KITS\10\INCLUDE\10.0.18362.0\UM\APIQUERY2.H
C:\PROGRAM FILES (X86)\WINDOWS KITS\10\INCLUDE\10.0.18362.0\UM\PROCESSENV.H
C:\PROGRAM FILES (X86)\WINDOWS KITS\10\INCLUDE\10.0.18362.0\UM\FILEAPIFROMAPP.H
C:\PROGRAM FILES (X86)\WINDOWS KITS\10\INCLUDE\10.0.18362.0\UM\FILEAPI.H
C:\PROGRAM FILES (X86)\WINDOWS KITS\10\INCLUDE\10.0.18362.0\UM\DEBUGAPI.H
C:\PROGRAM FILES (X86)\WINDOWS KITS\10\INCLUDE\10.0.18362.0\UM\UTILAPISET.H
C:\PROGRAM FILES (X86)\WINDOWS KITS\10\INCLUDE\10.0.18362.0\UM\HANDLEAPI.H
C:\PROGRAM FILES (X86)\WINDOWS KITS\10\INCLUDE\10.0.18362.0\UM\ERRHANDLINGAPI.H
C:\PROGRAM FILES (X86)\WINDOWS KITS\10\INCLUDE\10.0.18362.0\UM\FIBERSAPI.H
C:\PROGRAM FILES (X86)\WINDOWS KITS\10\INCLUDE\10.0.18362.0\UM\NAMEDPIPEAPI.H
C:\PROGRAM FILES (X86)\WINDOWS KITS\10\INCLUDE\10.0.18362.0\UM\PROFILEAPI.H
C:\PROGRAM FILES (X86)\WINDOWS KITS\10\INCLUDE\10.0.18362.0\UM\HEAPAPI.H
C:\PROGRAM FILES (X86)\WINDOWS KITS\10\INCLUDE\10.0.18362.0\UM\IOAPISET.H
C:\PROGRAM FILES (X86)\WINDOWS KITS\10\INCLUDE\10.0.18362.0\UM\SYNCHAPI.H
C:\PROGRAM FILES (X86)\WINDOWS KITS\10\INCLUDE\10.0.18362.0\UM\INTERLOCKEDAPI.H
C:\PROGRAM FILES (X86)\WINDOWS KITS\10\INCLUDE\10.0.18362.0\UM\PROCESSTHREADSAPI.H
C:\PROGRAM FILES (X86)\WINDOWS KITS\10\INCLUDE\10.0.18362.0\UM\SYSINFOAPI.H
C:\PROGRAM FILES (X86)\WINDOWS KITS\10\INCLUDE\10.0.18362.0\UM\MEMORYAPI.H
C:\PROGRAM FILES (X86)\WINDOWS KITS\10\INCLUDE\10.0.18362.0\UM\ENCLAVEAPI.H
C:\PROGRAM FILES (X86)\WINDOWS KITS\10\INCLUDE\10.0.18362.0\UM\THREADPOOLLEGACYAPISET.H
C:\PROGRAM FILES (X86)\WINDOWS KITS\10\INCLUDE\10.0.18362.0\UM\THREADPOOLAPISET.H
C:\PROGRAM FILES (X86)\WINDOWS KITS\10\INCLUDE\10.0.18362.0\UM\JOBAPI.H
C:\PROGRAM FILES (X86)\WINDOWS KITS\10\INCLUDE\10.0.18362.0\UM\JOBAPI2.H
C:\PROGRAM FILES (X86)\WINDOWS KITS\10\INCLUDE\10.0.18362.0\UM\WOW64APISET.H
C:\PROGRAM FILES (X86)\WINDOWS KITS\10\INCLUDE\10.0.18362.0\UM\LIBLOADERAPI.H
C:\PROGRAM FILES (X86)\WINDOWS KITS\10\INCLUDE\10.0.18362.0\UM\SECURITYBASEAPI.H
C:\PROGRAM FILES (X86)\WINDOWS KITS\10\INCLUDE\10.0.18362.0\UM\NAMESPACEAPI.H
C:\PROGRAM FILES (X86)\WINDOWS KITS\10\INCLUDE\10.0.18362.0\UM\SYSTEMTOPOLOGYAPI.H
C:\PROGRAM FILES (X86)\WINDOWS KITS\10\INCLUDE\10.0.18362.0\UM\PROCESSTOPOLOGYAPI.H
C:\PROGRAM FILES (X86)\WINDOWS KITS\10\INCLUDE\10.0.18362.0\UM\SECURITYAPPCONTAINER.H
C:\PROGRAM FILES (X86)\WINDOWS KITS\10\INCLUDE\10.0.18362.0\UM\REALTIMEAPISET.H
C:\PROGRAM FILES (X86)\WINDOWS KITS\10\INCLUDE\10.0.18362.0\SHARED\WINERROR.H
C:\PROGRAM FILES (X86)\WINDOWS KITS\10\INCLUDE\10.0.18362.0\UM\TIMEZONEAPI.H
C:\PROGRAM FILES (X86)\WINDOWS KITS\10\INCLUDE\10.0.18362.0\UM\WINGDI.H
C:\PROGRAM FILES (X86)\WINDOWS KITS\10\INCLUDE\10.0.18362.0\UM\WINUSER.H
C:\PROGRAM FILES (X86)\WINDOWS KITS\10\INCLUDE\10.0.18362.0\SHARED\TVOUT.H
C:\PROGRAM FILES (X86)\WINDOWS KITS\10\INCLUDE\10.0.18362.0\UM\WINNLS.H
C:\PROGRAM FILES (X86)\WINDOWS KITS\10\INCLUDE\10.0.18362.0\UM\DATETIMEAPI.H
C:\PROGRAM FILES (X86)\WINDOWS KITS\10\INCLUDE\10.0.18362.0\UM\STRINGAPISET.H
C:\PROGRAM FILES (X86)\WINDOWS KITS\10\INCLUDE\10.0.18362.0\UM\WINCON.H
C:\PROGRAM FILES (X86)\WINDOWS KITS\10\INCLUDE\10.0.18362.0\UM\WINCONTYPES.H
C:\PROGRAM FILES (X86)\WINDOWS KITS\10\INCLUDE\10.0.18362.0\UM\CONSOLEAPI.H
C:\PROGRAM FILES (X86)\WINDOWS KITS\10\INCLUDE\10.0.18362.0\UM\CONSOLEAPI2.H
C:\PROGRAM FILES (X86)\WINDOWS KITS\10\INCLUDE\10.0.18362.0\UM\CONSOLEAPI3.H
C:\PROGRAM FILES (X86)\WINDOWS KITS\10\INCLUDE\10.0.18362.0\UM\WINVER.H
C:\PROGRAM FILES (X86)\WINDOWS KITS\10\INCLUDE\10.0.18362.0\UM\VERRSRC.H
C:\PROGRAM FILES (X86)\WINDOWS KITS\10\INCLUDE\10.0.18362.0\UM\WINREG.H
C:\PROGRAM FILES (X86)\WINDOWS KITS\10\INCLUDE\10.0.18362.0\UM\REASON.H
C:\PROGRAM FILES (X86)\WINDOWS KITS\10\INCLUDE\10.0.18362.0\UM\WINNETWK.H
C:\PROGRAM FILES (X86)\WINDOWS KITS\10\INCLUDE\10.0.18362.0\SHARED\WNNC.H
C:\PROGRAM FILES (X86)\WINDOWS KITS\10\INCLUDE\10.0.18362.0\SHARED\CDERR.H
C:\PROGRAM FILES (X86)\WINDOWS KITS\10\INCLUDE\10.0.18362.0\UM\DDE.H
C:\PROGRAM FILES (X86)\WINDOWS KITS\10\INCLUDE\10.0.18362.0\UM\DDEML.H
C:\PROGRAM FILES (X86)\WINDOWS KITS\10\INCLUDE\10.0.18362.0\UM\DLGS.H
C:\PROGRAM FILES (X86)\WINDOWS KITS\10\INCLUDE\10.0.18362.0\UM\LZEXPAND.H
C:\PROGRAM FILES (X86)\WINDOWS KITS\10\INCLUDE\10.0.18362.0\UM\MMSYSTEM.H
C:\PROGRAM FILES (X86)\WINDOWS KITS\10\INCLUDE\10.0.18362.0\UM\MMSYSCOM.H
C:\PROGRAM FILES (X86)\WINDOWS KITS\10\INCLUDE\10.0.18362.0\UM\MCIAPI.H
C:\PROGRAM FILES (X86)\WINDOWS KITS\10\INCLUDE\10.0.18362.0\UM\MMISCAPI.H
C:\PROGRAM FILES (X86)\WINDOWS KITS\10\INCLUDE\10.0.18362.0\UM\MMISCAPI2.H
C:\PROGRAM FILES (X86)\WINDOWS KITS\10\INCLUDE\10.0.18362.0\UM\PLAYSOUNDAPI.H
C:\PROGRAM FILES (X86)\WINDOWS KITS\10\INCLUDE\10.0.18362.0\UM\MMEAPI.H
C:\PROGRAM FILES (X86)\WINDOWS KITS\10\INCLUDE\10.0.18362.0\UM\TIMEAPI.H
C:\PROGRAM FILES (X86)\WINDOWS KITS\10\INCLUDE\10.0.18362.0\UM\JOYSTICKAPI.H
C:\PROGRAM FILES (X86)\WINDOWS KITS\10\INCLUDE\10.0.18362.0\UM\NB30.H
C:\PROGRAM FILES (X86)\WINDOWS KITS\10\INCLUDE\10.0.18362.0\SHARED\RPC.H
C:\PROGRAM FILES (X86)\WINDOWS KITS\10\INCLUDE\10.0.18362.0\SHARED\RPCDCE.H
C:\PROGRAM FILES (X86)\WINDOWS KITS\10\INCLUDE\10.0.18362.0\SHARED\RPCDCEP.H
C:\PROGRAM FILES (X86)\WINDOWS KITS\10\INCLUDE\10.0.18362.0\UM\RPCNSI.H
C:\PROGRAM FILES (X86)\WINDOWS KITS\10\INCLUDE\10.0.18362.0\SHARED\RPCNTERR.H
C:\PROGRAM FILES (X86)\WINDOWS KITS\10\INCLUDE\10.0.18362.0\SHARED\RPCASYNC.H
C:\PROGRAM FILES (X86)\WINDOWS KITS\10\INCLUDE\10.0.18362.0\UM\SHELLAPI.H
C:\PROGRAM FILES (X86)\WINDOWS KITS\10\INCLUDE\10.0.18362.0\UM\WINPERF.H
C:\PROGRAM FILES (X86)\WINDOWS KITS\10\INCLUDE\10.0.18362.0\UM\WINSOCK.H
C:\PROGRAM FILES (X86)\WINDOWS KITS\10\INCLUDE\10.0.18362.0\SHARED\INADDR.H
C:\PROGRAM FILES (X86)\WINDOWS KITS\10\INCLUDE\10.0.18362.0\UM\WINCRYPT.H
C:\PROGRAM FILES (X86)\WINDOWS KITS\10\INCLUDE\10.0.18362.0\SHARED\BCRYPT.H
C:\PROGRAM FILES (X86)\WINDOWS KITS\10\INCLUDE\10.0.18362.0\UM\NCRYPT.H
C:\PROGRAM FILES (X86)\WINDOWS KITS\10\INCLUDE\10.0.18362.0\UM\DPAPI.H
C:\PROGRAM FILES (X86)\WINDOWS KITS\10\INCLUDE\10.0.18362.0\UM\WINEFS.H
C:\PROGRAM FILES (X86)\WINDOWS KITS\10\INCLUDE\10.0.18362.0\UM\WINSCARD.H
C:\PROGRAM FILES (X86)\WINDOWS KITS\10\INCLUDE\10.0.18362.0\SHARED\WTYPES.H
C:\PROGRAM FILES (X86)\WINDOWS KITS\10\INCLUDE\10.0.18362.0\SHARED\RPCNDR.H
C:\PROGRAM FILES (X86)\WINDOWS KITS\10\INCLUDE\10.0.18362.0\UM\RPCNSIP.H
C:\PROGRAM FILES (X86)\WINDOWS KITS\10\INCLUDE\10.0.18362.0\SHARED\RPCSAL.H
C:\PROGRAM FILES (X86)\WINDOWS KITS\10\INCLUDE\10.0.18362.0\SHARED\WTYPESBASE.H
C:\PROGRAM FILES (X86)\WINDOWS KITS\10\INCLUDE\10.0.18362.0\UM\WINIOCTL.H
C:\PROGRAM FILES (X86)\WINDOWS KITS\10\INCLUDE\10.0.18362.0\SHARED\WINSMCRD.H
C:\PROGRAM FILES (X86)\WINDOWS KITS\10\INCLUDE\10.0.18362.0\UM\WINSPOOL.H
C:\PROGRAM FILES (X86)\WINDOWS KITS\10\INCLUDE\10.0.18362.0\UM\PRSHT.H
C:\PROGRAM FILES (X86)\WINDOWS KITS\10\INCLUDE\10.0.18362.0\UM\OLE2.H
C:\PROGRAM FILES (X86)\WINDOWS KITS\10\INCLUDE\10.0.18362.0\UM\OBJBASE.H
C:\PROGRAM FILES (X86)\WINDOWS KITS\10\INCLUDE\10.0.18362.0\UM\COMBASEAPI.H
C:\PROGRAM FILES (X86)\WINDOWS KITS\10\INCLUDE\10.0.18362.0\UM\UNKNWNBASE.H
C:\PROGRAM FILES (X86)\WINDOWS KITS\10\INCLUDE\10.0.18362.0\UM\OBJIDLBASE.H
C:\PROGRAM FILES (X86)\WINDOWS KITS\10\INCLUDE\10.0.18362.0\UM\CGUID.H
C:\PROGRAM FILES (X86)\WINDOWS KITS\10\INCLUDE\10.0.18362.0\UM\COML2API.H
C:\PROGRAM FILES (X86)\WINDOWS KITS\10\INCLUDE\10.0.18362.0\UM\OBJIDL.H
C:\PROGRAM FILES (X86)\WINDOWS KITS\10\INCLUDE\10.0.18362.0\UM\UNKNWN.H
C:\PROGRAM FILES (X86)\WINDOWS KITS\10\INCLUDE\10.0.18362.0\UM\PROPIDLBASE.H
C:\PROGRAM FILES (X86)\WINDOWS KITS\10\INCLUDE\10.0.18362.0\UM\OAIDL.H
C:\PROGRAM FILES (X86)\WINDOWS KITS\10\INCLUDE\10.0.18362.0\UM\URLMON.H
C:\PROGRAM FILES (X86)\WINDOWS KITS\10\INCLUDE\10.0.18362.0\UM\OLEIDL.H
C:\PROGRAM FILES (X86)\WINDOWS KITS\10\INCLUDE\10.0.18362.0\UM\SERVPROV.H
C:\PROGRAM FILES (X86)\WINDOWS KITS\10\INCLUDE\10.0.18362.0\UM\MSXML.H
C:\PROGRAM FILES (X86)\WINDOWS KITS\10\INCLUDE\10.0.18362.0\UM\PROPIDL.H
C:\PROGRAM FILES (X86)\WINDOWS KITS\10\INCLUDE\10.0.18362.0\UM\OLEAUTO.H
C:\PROGRAM FILES (X86)\WINDOWS KITS\10\INCLUDE\10.0.18362.0\UM\COMMDLG.H
C:\PROGRAM FILES (X86)\WINDOWS KITS\10\INCLUDE\10.0.18362.0\SHARED\STRALIGN.H
C:\PROGRAM FILES (X86)\WINDOWS KITS\10\INCLUDE\10.0.18362.0\UM\WINSVC.H
C:\PROGRAM FILES (X86)\WINDOWS KITS\10\INCLUDE\10.0.18362.0\UM\MCX.H
C:\PROGRAM FILES (X86)\WINDOWS KITS\10\INCLUDE\10.0.18362.0\UM\IMM.H
C:\PROGRAM FILES (X86)\WINDOWS KITS\10\INCLUDE\10.0.18362.0\UM\IME_CMODES.H
C:\PROGRAM FILES (X86)\WINDOWS KITS\10\INCLUDE\10.0.18362.0\UM\GL\GL.H
C:\PROGRAM FILES (X86)\WINDOWS KITS\10\INCLUDE\10.0.18362.0\UM\GL\GLU.H
